…
Como analisar graficamente esses dados?

Como iremos utilizar apenas os dados do estado do Paraná, precisamos fazer algumas modificações para nós mostrar apenas o que queremos, como já carregamos nossa base e um pacote responsável por essas modificações acima em, Quais os primeiros passos para começar a analisar?, vamos dar continuidade com a exploração gráfica.

dados.cidades <- dados%>%filter(dados$state =="PR")
#dentro da coluna state pegamos apenas os dados que forem igual a PR

dados.pr <- dados.cidades%>%filter(dados.cidades$place_type =="state")
#selecionamos dentro da variável dados.cidades apenas os dados que contém o tipo de local
#igual a state

dados.cidades #visualizando os dados

## # A tibble: 27,764 x 12
##    date       state city  place_type confirmed deaths order_for_place is_last
##    <date>     <chr> <chr> <chr>          <dbl>  <dbl>           <dbl> <lgl>  
##  1 2020-08-05 PR    <NA>  state          85317   2164             145 TRUE   
##  2 2020-08-04 PR    <NA>  state          82718   2128             144 FALSE  
##  3 2020-08-03 PR    <NA>  state          80865   2050             143 FALSE  
##  4 2020-08-02 PR    <NA>  state          79605   2005             142 FALSE  
##  5 2020-08-01 PR    <NA>  state          77930   1975             141 FALSE  
##  6 2020-07-31 PR    <NA>  state          76112   1920             140 FALSE  
##  7 2020-07-30 PR    <NA>  state          73488   1861             139 FALSE  
##  8 2020-07-29 PR    <NA>  state          70920   1814             138 FALSE  
##  9 2020-07-28 PR    <NA>  state          69392   1743             137 FALSE  
## 10 2020-07-27 PR    <NA>  state          68001   1703             136 FALSE  
## # … with 27,754 more rows, and 4 more variables:
## #   estimated_population_2019 <dbl>, city_ibge_code <dbl>,
## #   confirmed_per_100k_inhabitants <dbl>, death_rate <dbl>
…
