…
Caso queira verificar a documentação por trás de cada uma dessas bases de dados, utilize ?flights , ?gapminder e ?diamonds.

Organizando dados com tibbles e DplyR

A Base nycflights13

Os dados carregados pelo pacote nycflights13::flights são referentes a todos os voos que passaram pelo aeroporto de Nova York no ano de 2013, com diversas informações, como data (dividida em ano, mês e ano), horários de saída e chegada, atraso, destino/origem do voo, dentre outros. Vamos dar uma olhada nessa base:

voos

## # A tibble: 336,776 × 19
##     year month   day dep_time sched_de…¹ dep_d…² arr_t…³ sched…⁴ arr_d…⁵ carrier
##    <int> <int> <int>    <int>      <int>   <dbl>   <int>   <int>   <dbl> <chr>  
##  1  2013     1     1      517        515       2     830     819      11 UA     
##  2  2013     1     1      533        529       4     850     830      20 UA     
##  3  2013     1     1      542        540       2     923     850      33 AA     
##  4  2013     1     1      544        545      -1    1004    1022     -18 B6     
##  5  2013     1     1      554        600      -6     812     837     -25 DL     
##  6  2013     1     1      554        558      -4     740     728      12 UA     
##  7  2013     1     1      555        600      -5     913     854      19 B6     
##  8  2013     1     1      557        600      -3     709     723     -14 EV     
##  9  2013     1     1      557        600      -3     838     846      -8 B6     
## 10  2013     1     1      558        600      -2     753     745       8 AA     
## # … with 336,766 more rows, 9 more variables: flight <int>, tailnum <chr>,
## #   origin <chr>, dest <chr>, air_time <dbl>, distance <dbl>, hour <dbl>,
## #   minute <dbl>, time_hour <dttm>, and abbreviated variable names
## #   ¹​sched_dep_time, ²​dep_delay, ³​arr_time, ⁴​sched_arr_time, ⁵​arr_delay
## # ℹ Use `print(n = ...)` to see more rows, and `colnames()` to see all variable names
…
O primeiro argumento de todas essas funções deve ser um data frame;

Os argumentos subsequentes definem o que deve ser feito com esse data frame;

O resultado da função é um data frame.

Com isso, a composição das funções fica fácil e intuitiva de se fazer.

Filtrando Linhas com filter()

A função filter() é utilizada para filtrar somente as linhas de um data frame em que seus valores obedeçam uma expressão. Por exemplo, digamos que queremos todos os dados de voos que ocorreram no dia 05 de maio da base flights. Podemos utilizar o filter() para tal:

filter(voos, day == 5, month == 5)

## # A tibble: 912 × 19
##     year month   day dep_time sched_de…¹ dep_d…² arr_t…³ sched…⁴ arr_d…⁵ carrier
##    <int> <int> <int>    <int>      <int>   <dbl>   <int>   <int>   <dbl> <chr>  
##  1  2013     5     5      446        500     -14     636     640      -4 US     
##  2  2013     5     5      524        515       9     745     800     -15 UA     
##  3  2013     5     5      539        540      -1     837     840      -3 AA     
##  4  2013     5     5      552        600      -8     828     835      -7 B6     
##  5  2013     5     5      552        600      -8     854     854       0 B6     
##  6  2013     5     5      552        603     -11     926     934      -8 UA     
##  7  2013     5     5      554        600      -6     759     815     -16 FL     
##  8  2013     5     5      555        600      -5     727     755     -28 EV     
##  9  2013     5     5      555        600      -5     814     850     -36 AA     
## 10  2013     5     5      555        600      -5     649     657      -8 US     
## # … with 902 more rows, 9 more variables: flight <int>, tailnum <chr>,
## #   origin <chr>, dest <chr>, air_time <dbl>, distance <dbl>, hour <dbl>,
## #   minute <dbl>, time_hour <dttm>, and abbreviated variable names
## #   ¹​sched_dep_time, ²​dep_delay, ³​arr_time, ⁴​sched_arr_time, ⁵​arr_delay
## # ℹ Use `print(n = ...)` to see more rows, and `colnames()` to see all variable names

Perceba que somente retornaram as linhas em que o dia = 5 e que o mês = 5, ou seja, 912 linhas ao todo. Note também que o dplyr retornou um data frame, mas que os dados originais não foram alterados. Caso queiramos salvar esse novo conjunto de dados, devemos atribuir ele para um objeto:

mai5 <- filter(voos, day == 5, month == 5)

# O dplyr só imprime os dados ou os atribui a um objeto.
# Caso queira fazer ambos, é só envolver a atribuição entre parenteses:

(dez25 <- filter(voos, day == 25, month == 12))

## # A tibble: 719 × 19
##     year month   day dep_time sched_de…¹ dep_d…² arr_t…³ sched…⁴ arr_d…⁵ carrier
##    <int> <int> <int>    <int>      <int>   <dbl>   <int>   <int>   <dbl> <chr>  
##  1  2013    12    25      456        500      -4     649     651      -2 US     
##  2  2013    12    25      524        515       9     805     814      -9 UA     
##  3  2013    12    25      542        540       2     832     850     -18 AA     
##  4  2013    12    25      546        550      -4    1022    1027      -5 B6     
##  5  2013    12    25      556        600      -4     730     745     -15 AA     
##  6  2013    12    25      557        600      -3     743     752      -9 DL     
##  7  2013    12    25      557        600      -3     818     831     -13 DL     
##  8  2013    12    25      559        600      -1     855     856      -1 B6     
##  9  2013    12    25      559        600      -1     849     855      -6 B6     
## 10  2013    12    25      600        600       0     850     846       4 B6     
## # … with 709 more rows, 9 more variables: flight <int>, tailnum <chr>,
## #   origin <chr>, dest <chr>, air_time <dbl>, distance <dbl>, hour <dbl>,
## #   minute <dbl>, time_hour <dttm>, and abbreviated variable names
## #   ¹​sched_dep_time, ²​dep_delay, ³​arr_time, ⁴​sched_arr_time, ⁵​arr_delay
## # ℹ Use `print(n = ...)` to see more rows, and `colnames()` to see all variable names

Em todos os casos, o primeiro argumento da função foi a nossa base de dados (voos), e os argumentos seguintes são os filtros que queremos aplicar, utilizando comparações com os nomes das colunas. Podemos atribuir quantos filtros quisermos, cada um separado por vírgula.

Operações lógicas e de comparação

Para que possamos utilizar o filter() de maneira eficiente, é necessário saber como selecionar as observações com operadores de comparação com auxílio de operadores lógicos. Para isso, usamos dois caracteres especiais, reservados para operadores booleanos: | e &:

A expressão & é equivalente ao and, e retorna TRUE caso todos os valores sejam verdadeiros, e FALSE caso contrário. A expressão | é equivalente ao or, e retorna TRUE caso algum dos valores seja verdadeiro. Por exemplo, vamos selecionar todos os voos nos meses de novembro e dezembro:

filter(voos, month == 11 | month == 12)

## # A tibble: 55,403 × 19
##     year month   day dep_time sched_de…¹ dep_d…² arr_t…³ sched…⁴ arr_d…⁵ carrier
##    <int> <int> <int>    <int>      <int>   <dbl>   <int>   <int>   <dbl> <chr>  
##  1  2013    11     1        5       2359       6     352     345       7 B6     
##  2  2013    11     1       35       2250     105     123    2356      87 B6     
##  3  2013    11     1      455        500      -5     641     651     -10 US     
##  4  2013    11     1      539        545      -6     856     827      29 UA     
##  5  2013    11     1      542        545      -3     831     855     -24 AA     
##  6  2013    11     1      549        600     -11     912     923     -11 UA     
##  7  2013    11     1      550        600     -10     705     659       6 US     
##  8  2013    11     1      554        600      -6     659     701      -2 US     
##  9  2013    11     1      554        600      -6     826     827      -1 DL     
## 10  2013    11     1      554        600      -6     749     751      -2 DL     
## # … with 55,393 more rows, 9 more variables: flight <int>, tailnum <chr>,
## #   origin <chr>, dest <chr>, air_time <dbl>, distance <dbl>, hour <dbl>,
## #   minute <dbl>, time_hour <dttm>, and abbreviated variable names
## #   ¹​sched_dep_time, ²​dep_delay, ³​arr_time, ⁴​sched_arr_time, ⁵​arr_delay
## # ℹ Use `print(n = ...)` to see more rows, and `colnames()` to see all variable names

Aqui, estamos filtrando as linhas em que month == 11 ou month == 12. Ao invés de utilizar essa notação, poderíamos utilizar a função %in%, que compara os valores com um vetor de possibilidades, um a um. A expressão seria simplificada para:

filter(voos, month %in% c(11,12))

## # A tibble: 55,403 × 19
##     year month   day dep_time sched_de…¹ dep_d…² arr_t…³ sched…⁴ arr_d…⁵ carrier
##    <int> <int> <int>    <int>      <int>   <dbl>   <int>   <int>   <dbl> <chr>  
##  1  2013    11     1        5       2359       6     352     345       7 B6     
##  2  2013    11     1       35       2250     105     123    2356      87 B6     
##  3  2013    11     1      455        500      -5     641     651     -10 US     
##  4  2013    11     1      539        545      -6     856     827      29 UA     
##  5  2013    11     1      542        545      -3     831     855     -24 AA     
##  6  2013    11     1      549        600     -11     912     923     -11 UA     
##  7  2013    11     1      550        600     -10     705     659       6 US     
##  8  2013    11     1      554        600      -6     659     701      -2 US     
##  9  2013    11     1      554        600      -6     826     827      -1 DL     
## 10  2013    11     1      554        600      -6     749     751      -2 DL     
## # … with 55,393 more rows, 9 more variables: flight <int>, tailnum <chr>,
## #   origin <chr>, dest <chr>, air_time <dbl>, distance <dbl>, hour <dbl>,
## #   minute <dbl>, time_hour <dttm>, and abbreviated variable names
## #   ¹​sched_dep_time, ²​dep_delay, ³​arr_time, ⁴​sched_arr_time, ⁵​arr_delay
## # ℹ Use `print(n = ...)` to see more rows, and `colnames()` to see all variable names
…
## [1] TRUE

# Muitas funções tem embutidos argumentos específicos para lidar com NAs
# Na função mean(), por exemplo, é usado na.rm = TRUE
mean(c(1,2,3,NA,4), na.rm = TRUE)

## [1] 2.5

A função filter() por padrão só mantém as linhas em que as comparações retornam TRUE, excluindo quem retornar FALSE ou NA. Para contornar isso, podemos utilizar a função is.na(), que retorna TRUE caso o valor seja NA. Por exemplo, há voos que tem tempo no ar (air_time) vazio, ou seja, voos que foram cancelados. Para selecionar somente eles, usaremos:

(cancelados <- filter(voos, is.na(air_time)))

## # A tibble: 9,430 × 19
##     year month   day dep_time sched_de…¹ dep_d…² arr_t…³ sched…⁴ arr_d…⁵ carrier
##    <int> <int> <int>    <int>      <int>   <dbl>   <int>   <int>   <dbl> <chr>  
##  1  2013     1     1     1525       1530      -5    1934    1805      NA MQ     
##  2  2013     1     1     1528       1459      29    2002    1647      NA EV     
##  3  2013     1     1     1740       1745      -5    2158    2020      NA MQ     
##  4  2013     1     1     1807       1738      29    2251    2103      NA UA     
##  5  2013     1     1     1939       1840      59      29    2151      NA 9E     
##  6  2013     1     1     1952       1930      22    2358    2207      NA EV     
##  7  2013     1     1     2016       1930      46      NA    2220      NA EV     
##  8  2013     1     1       NA       1630      NA      NA    1815      NA EV     
##  9  2013     1     1       NA       1935      NA      NA    2240      NA AA     
## 10  2013     1     1       NA       1500      NA      NA    1825      NA AA     
## # … with 9,420 more rows, 9 more variables: flight <int>, tailnum <chr>,
## #   origin <chr>, dest <chr>, air_time <dbl>, distance <dbl>, hour <dbl>,
## #   minute <dbl>, time_hour <dttm>, and abbreviated variable names
## #   ¹​sched_dep_time, ²​dep_delay, ³​arr_time, ⁴​sched_arr_time, ⁵​arr_delay
## # ℹ Use `print(n = ...)` to see more rows, and `colnames()` to see all variable names

Ordenando linhas com arrange()

A função arrange() funciona de maneira similar ao filter(), mas reorganiza as linhas mudando a ordem delas, ao invés de selecioná-las. Ela recebe um data frame como primeiro argumento e os nomes das colunas que devem ser ordenadas. Se mais de um nome for passado, cada coluna a mais sevirá como fator de desempate para as colunas anteriores:

# Vamos organizar a base em ordem cronológica
arrange(voos, year, month, day)

## # A tibble: 336,776 × 19
##     year month   day dep_time sched_de…¹ dep_d…² arr_t…³ sched…⁴ arr_d…⁵ carrier
##    <int> <int> <int>    <int>      <int>   <dbl>   <int>   <int>   <dbl> <chr>  
##  1  2013     1     1      517        515       2     830     819      11 UA     
##  2  2013     1     1      533        529       4     850     830      20 UA     
##  3  2013     1     1      542        540       2     923     850      33 AA     
##  4  2013     1     1      544        545      -1    1004    1022     -18 B6     
##  5  2013     1     1      554        600      -6     812     837     -25 DL     
##  6  2013     1     1      554        558      -4     740     728      12 UA     
##  7  2013     1     1      555        600      -5     913     854      19 B6     
##  8  2013     1     1      557        600      -3     709     723     -14 EV     
##  9  2013     1     1      557        600      -3     838     846      -8 B6     
## 10  2013     1     1      558        600      -2     753     745       8 AA     
## # … with 336,766 more rows, 9 more variables: flight <int>, tailnum <chr>,
## #   origin <chr>, dest <chr>, air_time <dbl>, distance <dbl>, hour <dbl>,
## #   minute <dbl>, time_hour <dttm>, and abbreviated variable names
## #   ¹​sched_dep_time, ²​dep_delay, ³​arr_time, ⁴​sched_arr_time, ⁵​arr_delay
## # ℹ Use `print(n = ...)` to see more rows, and `colnames()` to see all variable names

Aqui, foram reordenadas as linhas de modo que o ano seja colocado em ordem crescente. Após isso, foram reorganizados para que o mês seja colocado em ordem crescente. Ao final, foram reorganizados de forma a deixar os dias em ordem crescente. Com isso, a base foi reordenada por ordem cronológica (1/1/2013 -> 2/1/2013 -> 3/1/2013 -> …). Caso queira deixar em ordem decrescente, use desc():

# Vamos organizar por atraso de saída (dep_delay) decrescente
# Assim, vemos os voos que mais atrasaram:
arrange(voos, desc(dep_delay))

## # A tibble: 336,776 × 19
##     year month   day dep_time sched_de…¹ dep_d…² arr_t…³ sched…⁴ arr_d…⁵ carrier
##    <int> <int> <int>    <int>      <int>   <dbl>   <int>   <int>   <dbl> <chr>  
##  1  2013     1     9      641        900    1301    1242    1530    1272 HA     
##  2  2013     6    15     1432       1935    1137    1607    2120    1127 MQ     
##  3  2013     1    10     1121       1635    1126    1239    1810    1109 MQ     
##  4  2013     9    20     1139       1845    1014    1457    2210    1007 AA     
##  5  2013     7    22      845       1600    1005    1044    1815     989 MQ     
##  6  2013     4    10     1100       1900     960    1342    2211     931 DL     
##  7  2013     3    17     2321        810     911     135    1020     915 DL     
##  8  2013     6    27      959       1900     899    1236    2226     850 DL     
##  9  2013     7    22     2257        759     898     121    1026     895 DL     
## 10  2013    12     5      756       1700     896    1058    2020     878 AA     
## # … with 336,766 more rows, 9 more variables: flight <int>, tailnum <chr>,
## #   origin <chr>, dest <chr>, air_time <dbl>, distance <dbl>, hour <dbl>,
## #   minute <dbl>, time_hour <dttm>, and abbreviated variable names
## #   ¹​sched_dep_time, ²​dep_delay, ³​arr_time, ⁴​sched_arr_time, ⁵​arr_delay
## # ℹ Use `print(n = ...)` to see more rows, and `colnames()` to see all variable names

Selecionando colunas com select()

Normalmente as bases de dados são conjunto com dezenas até centenas de variáveis. E muitas vezes, apenas algumas dessas variáveis é de nosso interesse, de forma que é desnecessário utilizar todas elas em nossa análise. Para isso, vamos utilizar a função select(), que seleciona somente um subconjunto de colunas da base:

# Vamos selecionar somente as colunas com datas:
select(voos, year, month, day)

## # A tibble: 336,776 × 3
##     year month   day
##    <int> <int> <int>
##  1  2013     1     1
##  2  2013     1     1
##  3  2013     1     1
##  4  2013     1     1
##  5  2013     1     1
##  6  2013     1     1
##  7  2013     1     1
##  8  2013     1     1
##  9  2013     1     1
## 10  2013     1     1
## # … with 336,766 more rows
## # ℹ Use `print(n = ...)` to see more rows

# Podemos selecionar também com a posição das colunas:
select(voos, c(1:3))

## # A tibble: 336,776 × 3
##     year month   day
##    <int> <int> <int>
##  1  2013     1     1
##  2  2013     1     1
##  3  2013     1     1
##  4  2013     1     1
##  5  2013     1     1
##  6  2013     1     1
##  7  2013     1     1
##  8  2013     1     1
##  9  2013     1     1
## 10  2013     1     1
## # … with 336,766 more rows
## # ℹ Use `print(n = ...)` to see more rows

# Além disso, podemos trabalhar com conjuntos:
select(voos, dep_time:arr_time)

## # A tibble: 336,776 × 4
##    dep_time sched_dep_time dep_delay arr_time
##       <int>          <int>     <dbl>    <int>
##  1      517            515         2      830
##  2      533            529         4      850
##  3      542            540         2      923
##  4      544            545        -1     1004
##  5      554            600        -6      812
##  6      554            558        -4      740
##  7      555            600        -5      913
##  8      557            600        -3      709
##  9      557            600        -3      838
## 10      558            600        -2      753
## # … with 336,766 more rows
## # ℹ Use `print(n = ...)` to see more rows

# Podemos excluir colunas com -(nome_coluna)
select(voos,-(year:day))

## # A tibble: 336,776 × 16
##    dep_t…¹ sched…² dep_d…³ arr_t…⁴ sched…⁵ arr_d…⁶ carrier flight tailnum origin
##      <int>   <int>   <dbl>   <int>   <int>   <dbl> <chr>    <int> <chr>   <chr> 
##  1     517     515       2     830     819      11 UA        1545 N14228  EWR   
##  2     533     529       4     850     830      20 UA        1714 N24211  LGA   
##  3     542     540       2     923     850      33 AA        1141 N619AA  JFK   
##  4     544     545      -1    1004    1022     -18 B6         725 N804JB  JFK   
##  5     554     600      -6     812     837     -25 DL         461 N668DN  LGA   
##  6     554     558      -4     740     728      12 UA        1696 N39463  EWR   
##  7     555     600      -5     913     854      19 B6         507 N516JB  EWR   
##  8     557     600      -3     709     723     -14 EV        5708 N829AS  LGA   
##  9     557     600      -3     838     846      -8 B6          79 N593JB  JFK   
## 10     558     600      -2     753     745       8 AA         301 N3ALAA  LGA   
## # … with 336,766 more rows, 6 more variables: dest <chr>, air_time <dbl>,
## #   distance <dbl>, hour <dbl>, minute <dbl>, time_hour <dttm>, and abbreviated
## #   variable names ¹​dep_time, ²​sched_dep_time, ³​dep_delay, ⁴​arr_time,
## #   ⁵​sched_arr_time, ⁶​arr_delay
## # ℹ Use `print(n = ...)` to see more rows, and `colnames()` to see all variable names
…
